{
	"name": "Sweetz",
	"source": "internal",
	"types": [
		"DEF",
		"DEF",
		"DEF",
		"DEF",
		"DEF",
		"DEF",
		"DEF",
		"DEF",
		"ALT",
		"ALT",
		"ALT",
		"ALT",
		"ALT",
		"ALT",
		"ALT",
		"ALT",
		"ALT_B",
		"ALT_B",
		"ALT_BL_X",
		"ALT_BR_X",
		"ALT_BR",
		"ALT_BL",
		"ALT_R",
		"ALT_L",
		"ALT_R",
		"ALT_L",
		"ALT_TR",
		"ALT_TL",
		"ALT_TR_X",
		"ALT_T",
		"ALT_T",
		"ALT_TL_X",
		"HILL_BR",
		"HILL_B",
		"HILL_BL",
		"HILL_BR",
		"HILL_BR_X",
		"HILL_BL_X",
		"HILL_L",
		"HILL_R",
		"HILL_TR_X",
		"HILL_TL_X",
		"HILL_TR",
		"HILL_T",
		"HILL_TL",
		"ROCK",
		"ROCK",
		"ROCK",
		"ROCK",
		"ROCK_ALT",
		"ROCK_ALT",
		"ROCK_ALT",
		"ROCK_ALT",
		"DEATH_BR",
		"DEATH_B",
		"DEATH_B",
		"DEATH_BR",
		"DEATH_BR_X",
		"DEATH_BL_X",
		"DEATH_BL",
		"DEATH_R",
		"DEATH_L",
		"DEATH_R",
		"DEATH",
		"DEATH_L",
		"DEATH_TR_X",
		"DEATH_TL_X",
		"DEATH_TR",
		"DEATH_T",
		"DEATH_T",
		"DEATH_TL",
		"WATER_BR",
		"WATER_B",
		"WATER_BR",
		"WATER_BR_X",
		"WATER_BL_X",
		"WATER_BL",
		"WATER",
		"WATER",
		"WATER_R",
		"WATER",
		"WATER",
		"WATER_L",
		"WATER_TR_X",
		"WATER_TL_X",
		"WATER_TL",
		"WATER_TR",
		"WATER_T",
		"WATER_T",
		"WATER_TL",
		"SPIKEZ",
		"SPIKEZ_ALT",
		"FHOLE",
		"HOLE",
		"FHOLE_ALT",
		"HOLE_ALT",
		"BLIP",
		"BLIP_ALT",
		"BRIDGE",
		"BRIDGE_LO",
		"DBRIDGE",
		"DBRIDGE_LO",
		"CRUMBLE",
		"DCRUMBLE",
		"BRIDGE_HIP",
		"BRIDGE_LOP",
		"DBRIDGE_HIP",
		"DBRIDGE_LOP",
		"TSTAIRS_L",
		"TSTAIRS",
		"TSTAIRS_R",
		"BSTAIRS_L",
		"BSTAIRS",
		"BSTAIRS_R",
		"LSTAIRS_T",
		"RSTAIRS_T",
		"LSTAIRS",
		"RSTAIRS",
		"LSTAIRS_B",
		"RSTAIRS_B",
		"STEP_T",
		"STEP_L",
		"STEP_R",
		"STEP_B",
		"GROCK_TL",
		"GROCK_T",
		"GROCK_TR",
		"GROCK_L",
		"GROCK",
		"GROCK_R",
		"GROCK_BL",
		"GROCK_B",
		"GROCK_BR"
	],
	"area": "AREA4",
	"rez": [1, 2, 3, 4, 5, 6, 7, 8, 9, 10, 11, 12, 13, 14, 15, 16,
	        18, 19, 20, 21, 22, 23, 25, 26, 27, 28, 30, 31, 33,
			34, 35, 36, 40, 41, 43, 45, 46, 49, 55, 52, 64, 67, 70,
			71, 73, 77, 78, 79, 80, 81, 82, 83, 84, 104, 105,
			106, 108, 109, 112, 113, 115, 120, 123, 125, 129, 131,
			134, 136, 137, 138, 139, 144, 145, 148, 149, 152, 153, 157,
			158, 163, 165, 166, 168, 171, 174, 175, 176, 177, 178,
			179, 191, 192, 195, 196, 197, 198, 199, 200, 257, 258,
			259, 260, 261, 262, 263, 264, 265, 266, 270, 271, 272,
			273, 274, 275, 276, 277, 278, 279, 280, 281, 282, 283,
			284, 285, 286, 287, 288, 289, 290, 291, 292, 293, 294],
	"rezMapping": {
		"17": 21,
		"24": 20,
		"29": 33,
		"32": 36,
		"42": 41,
		"50": 43,
		"58": 52,
		"61": 55,
		"63": 70,
		"68": 73,
		"72": 71,
		"90": 1,
		"91": 9,
		"107": 113,
		"117": 125,
		"118": 125,
		"126": 125,
		"130": 136,
		"135": 139,
		"146": 145,
		"147": 153,
		"155": 163,
		"160": 168,
		"170": 176
	}
}
